%YAML 1.1
%TAG !u! tag:unity3d.com,2011:
--- !u!114 &11400000
MonoBehaviour:
  m_ObjectHideFlags: 0
  m_CorrespondingSourceObject: {fileID: 0}
  m_PrefabInstance: {fileID: 0}
  m_PrefabAsset: {fileID: 0}
  m_GameObject: {fileID: 0}
  m_Enabled: 1
  m_EditorHideFlags: 0
  m_Script: {fileID: 11500000, guid: 8ceac325ab9d4ef8835f4ef82e9894ae, type: 3}
  m_Name: EquipItemTypeAssets
  m_EditorClassIdentifier: 
  Configs:
  - EquipItemType: 0
    IconType: {fileID: 21300000, guid: 7819959ebaa44a24180d315bc2f3b50b, type: 3}
    Decription: "\u042D\u0442\u043E \u043E\u0440\u0443\u0436\u0438\u0435 \u043F\u0440\u0438\u043D\u0430\u0434\u043B\u0435\u0436\u0438\u0442
      \u043A \u0442\u0438\u043F\u0443 \u0434\u043B\u0438\u043D\u043D\u044B\u043C
      \u043C\u0435\u0447\u0430\u043C"
  - EquipItemType: 1
    IconType: {fileID: 21300000, guid: db92c0c87c617dd43963d6156c2eb1a4, type: 3}
    Decription: "\u042D\u0442\u043E \u043E\u0440\u0443\u0436\u0438\u0435 \u043F\u0440\u0438\u043D\u0430\u0434\u043B\u0435\u0436\u0438\u0442
      \u043A \u0442\u0438\u043F\u0443 \u0431\u043E\u043B\u044C\u0448\u0438\u043C
      \u043C\u0435\u0447\u0430\u043C"
  - EquipItemType: 2
    IconType: {fileID: 21300000, guid: 212eae5a73e130c459be00f287f750dd, type: 3}
    Decription: "\u042D\u0442\u043E \u043E\u0440\u0443\u0436\u0438\u0435 \u043F\u0440\u0438\u043D\u0430\u0434\u043B\u0435\u0436\u0438\u0442
      \u043A \u0442\u0438\u043F\u0443 \u043C\u0430\u043B\u0435\u043D\u044C\u043A\u0438\u043C
      \u043C\u0435\u0447\u0430\u043C"
  - EquipItemType: 3
    IconType: {fileID: 21300000, guid: 2673ade20079de3459cf69a831c09087, type: 3}
    Decription: "\u042D\u0442\u043E \u043E\u0440\u0443\u0436\u0438\u0435 \u043F\u0440\u0438\u043D\u0430\u0434\u043B\u0435\u0436\u0438\u0442
      \u043A \u0442\u0438\u043F\u0443"
  - EquipItemType: 4
    IconType: {fileID: 21300000, guid: 0e29ec4e5e01ff84199bf35d61e0b33d, type: 3}
    Decription: "\u042D\u0442\u043E \u043E\u0440\u0443\u0436\u0438\u0435 \u043F\u0440\u0438\u043D\u0430\u0434\u043B\u0435\u0436\u0438\u0442
      \u043A \u0442\u0438\u043F\u0443"
  - EquipItemType: 5
    IconType: {fileID: 21300000, guid: 99eb5c723fe867e438315ba58949936f, type: 3}
    Decription: "\u042D\u0442\u043E \u043E\u0440\u0443\u0436\u0438\u0435 \u043F\u0440\u0438\u043D\u0430\u0434\u043B\u0435\u0436\u0438\u0442
      \u043A \u0442\u0438\u043F\u0443"
  - EquipItemType: 6
    IconType: {fileID: 21300000, guid: 34a2ba71a6a756d428aed1a3a4f42a1b, type: 3}
    Decription: "\u042D\u0442\u043E \u043E\u0440\u0443\u0436\u0438\u0435 \u043F\u0440\u0438\u043D\u0430\u0434\u043B\u0435\u0436\u0438\u0442
      \u043A \u0442\u0438\u043F\u0443"
  - EquipItemType: 7
    IconType: {fileID: 21300000, guid: f2f94cb57150f324d8e15dfe51e80899, type: 3}
    Decription: "\u042D\u0442\u043E \u043E\u0440\u0443\u0436\u0438\u0435 \u043F\u0440\u0438\u043D\u0430\u0434\u043B\u0435\u0436\u0438\u0442
      \u043A \u0442\u0438\u043F\u0443"
  - EquipItemType: 8
    IconType: {fileID: 21300000, guid: 2e2a06e9d0409da4a94406d1aae29341, type: 3}
    Decription: "\u042D\u0442\u043E \u043E\u0440\u0443\u0436\u0438\u0435 \u043F\u0440\u0438\u043D\u0430\u0434\u043B\u0435\u0436\u0438\u0442
      \u043A \u0442\u0438\u043F\u0443"
  - EquipItemType: 10
    IconType: {fileID: 21300000, guid: 0431cacc6b983a649bf7a7a1c9572e72, type: 3}
    Decription: "\u042D\u0442\u043E \u043E\u0440\u0443\u0436\u0438\u0435 \u043F\u0440\u0438\u043D\u0430\u0434\u043B\u0435\u0436\u0438\u0442
      \u043A \u0442\u0438\u043F\u0443"
  - EquipItemType: 11
    IconType: {fileID: 21300000, guid: 83368a4248a50bd41b5ddb5c8b8a4c90, type: 3}
    Decription: "\u042D\u0442\u043E \u043E\u0440\u0443\u0436\u0438\u0435 \u043F\u0440\u0438\u043D\u0430\u0434\u043B\u0435\u0436\u0438\u0442
      \u043A \u0442\u0438\u043F\u0443"
  - EquipItemType: 9
    IconType: {fileID: 21300000, guid: 8d66af6cdf599014189e5f09436deab7, type: 3}
    Decription: "\u042D\u0442\u043E \u043E\u0440\u0443\u0436\u0438\u0435 \u043F\u0440\u0438\u043D\u0430\u0434\u043B\u0435\u0436\u0438\u0442
      \u043A \u0442\u0438\u043F\u0443"
