%YAML 1.1
%TAG !u! tag:unity3d.com,2011:
--- !u!114 &11400000
MonoBehaviour:
  m_ObjectHideFlags: 0
  m_CorrespondingSourceObject: {fileID: 0}
  m_PrefabInstance: {fileID: 0}
  m_PrefabAsset: {fileID: 0}
  m_GameObject: {fileID: 0}
  m_Enabled: 1
  m_EditorHideFlags: 0
  m_Script: {fileID: 11500000, guid: b181c58018d946708057864b68577372, type: 3}
  m_Name: SkillCollisionAssets
  m_EditorClassIdentifier: 
  Configs:
  - SkillName: 
    Prefab: {fileID: 0}
  Default:
    SkillName: Prefab
    Prefab: {fileID: 7981624877754800213, guid: c96f6c945001fcf44bdc5a65010cc761, type: 3}
