%YAML 1.1
%TAG !u! tag:unity3d.com,2011:
--- !u!114 &11400000
MonoBehaviour:
  m_ObjectHideFlags: 0
  m_CorrespondingSourceObject: {fileID: 0}
  m_PrefabInstance: {fileID: 0}
  m_PrefabAsset: {fileID: 0}
  m_GameObject: {fileID: 0}
  m_Enabled: 1
  m_EditorHideFlags: 0
  m_Script: {fileID: 11500000, guid: df6a4895cadf4f30925d2ecf3514b0c8, type: 3}
  m_Name: Weapon_Big_Lvl_2
  m_EditorClassIdentifier: 
  PartsToDisabled: 
  EquipmentViewObject: {fileID: 6955698781785999835, guid: 24a9a5c676e65534180ea887f955b1ae, type: 3}
