%YAML 1.1
%TAG !u! tag:unity3d.com,2011:
--- !u!21 &2100000
Material:
  serializedVersion: 6
  m_ObjectHideFlags: 0
  m_CorrespondingSourceObject: {fileID: 0}
  m_PrefabInstance: {fileID: 0}
  m_PrefabAsset: {fileID: 0}
  m_Name: ColdLvl2
  m_Shader: {fileID: -6465566751694194690, guid: 5c0cce2d49f9e6e46bdb8460e6d33c57, type: 3}
  m_ShaderKeywords: 
  m_LightmapFlags: 4
  m_EnableInstancingVariants: 0
  m_DoubleSidedGI: 0
  m_CustomRenderQueue: -1
  stringTagMap: {}
  disabledShaderPasses: []
  m_SavedProperties:
    serializedVersion: 3
    m_TexEnvs:
    - _MainTex:
        m_Texture: {fileID: 2800000, guid: 80eb2e814c0cba34ab7657785be4213e, type: 3}
        m_Scale: {x: 1, y: 1}
        m_Offset: {x: 0, y: 0}
    - unity_Lightmaps:
        m_Texture: {fileID: 0}
        m_Scale: {x: 1, y: 1}
        m_Offset: {x: 0, y: 0}
    - unity_LightmapsInd:
        m_Texture: {fileID: 0}
        m_Scale: {x: 1, y: 1}
        m_Offset: {x: 0, y: 0}
    - unity_ShadowMasks:
        m_Texture: {fileID: 0}
        m_Scale: {x: 1, y: 1}
        m_Offset: {x: 0, y: 0}
    m_Floats:
    - Vector1_c3402c3bd19b46e89f164f1aab1104e9: 5
    - _EffectAlpha: 0.699
    - _Size: 0.0108
    - _SpeedMove: 1.29
    - _TexAlpha: 0.455
    m_Colors:
    - SiseMask: {r: 0, g: 0, b: 0, a: 0}
    - _Color: {r: 0, g: 0.14980307, b: 2.9960785, a: 0.56078434}
    - _Color_2: {r: 0, g: 0.6431373, b: 0.39215687, a: 1}
  m_BuildTextureStacks: []
