%YAML 1.1
%TAG !u! tag:unity3d.com,2011:
--- !u!114 &11400000
MonoBehaviour:
  m_ObjectHideFlags: 0
  m_CorrespondingSourceObject: {fileID: 0}
  m_PrefabInstance: {fileID: 0}
  m_PrefabAsset: {fileID: 0}
  m_GameObject: {fileID: 0}
  m_Enabled: 1
  m_EditorHideFlags: 0
  m_Script: {fileID: 11500000, guid: 896748259b344b58972cd8d3ec17f876, type: 3}
  m_Name: EquipCategory
  m_EditorClassIdentifier: 
  CategoryName: 0
  KeyName: "\u041F\u0440\u0435\u0434\u043C\u0435\u0442\u044B"
  HideIsEmpty: 0
  IsImprove: 1
  ListConfigItems:
  - NameKey: Armor_Black_Warrior_Lvl_1
    ConfigId: 301
    Icon: {fileID: 21300000, guid: 1103cbaa4b87113419602fd10a03d146, type: 3}
    Category: 0
    DescriptionKey: 
    IsStackable: 0
    PrefabView: {fileID: 11400000, guid: 35a3235b95a4a7d45b0b836760268f83, type: 2}
    EquipmentType: 1
    EquipItemType: 0
    SkillName: 
    Stats:
    - Component: 2
      MathType: 0
      Value: 0
  - NameKey: Armor_Black_Warrior_Lvl_2
    ConfigId: 302
    Icon: {fileID: 21300000, guid: 93247bfd306e49e4bae521b08bd53748, type: 3}
    Category: 0
    DescriptionKey: 
    IsStackable: 0
    PrefabView: {fileID: 11400000, guid: d7f3e3232f3ae884ca17a942edc92f71, type: 2}
    EquipmentType: 1
    EquipItemType: 0
    SkillName: 
    Stats:
    - Component: 2
      MathType: 0
      Value: 0
  - NameKey: Armor_Black_Warrior_Lvl_3
    ConfigId: 303
    Icon: {fileID: 21300000, guid: 7c2921d0a3024d04cb11d61f016defb4, type: 3}
    Category: 0
    DescriptionKey: 
    IsStackable: 0
    PrefabView: {fileID: 11400000, guid: f59f3d506729d8845a31971860d03ef6, type: 2}
    EquipmentType: 1
    EquipItemType: 0
    SkillName: 
    Stats:
    - Component: 2
      MathType: 0
      Value: 0
  - NameKey: Armor_Black_Warrior_Lvl_4
    ConfigId: 304
    Icon: {fileID: 21300000, guid: d39ef25f86b52b345bd74eafbf920392, type: 3}
    Category: 0
    DescriptionKey: 
    IsStackable: 0
    PrefabView: {fileID: 11400000, guid: 11d238588f06c524c94794f0e0e2588f, type: 2}
    EquipmentType: 1
    EquipItemType: 0
    SkillName: 
    Stats:
    - Component: 2
      MathType: 0
      Value: 0
  - NameKey: Armor_Black_Warrior_Lvl_5
    ConfigId: 305
    Icon: {fileID: 21300000, guid: 2673ade20079de3459cf69a831c09087, type: 3}
    Category: 0
    DescriptionKey: 
    IsStackable: 0
    PrefabView: {fileID: 11400000, guid: 0e0d66854fa593849b33f596d5f446d0, type: 2}
    EquipmentType: 1
    EquipItemType: 0
    SkillName: 
    Stats:
    - Component: 2
      MathType: 0
      Value: 0
  - NameKey: Armor_Brown_Magician_Lvl_1
    ConfigId: 306
    Icon: {fileID: 21300000, guid: 09840cb348cc52c4b88bf9a079e056c8, type: 3}
    Category: 0
    DescriptionKey: 
    IsStackable: 0
    PrefabView: {fileID: 11400000, guid: 358ae1a3a8aace44c830a670d3536876, type: 2}
    EquipmentType: 1
    EquipItemType: 0
    SkillName: 
    Stats:
    - Component: 2
      MathType: 0
      Value: 0
  - NameKey: Armor_Brown_Magician_Lvl_2
    ConfigId: 307
    Icon: {fileID: 21300000, guid: 7cdbc9d7439a17242a4b57b08039618d, type: 3}
    Category: 0
    DescriptionKey: 
    IsStackable: 0
    PrefabView: {fileID: 11400000, guid: 4779af1a6b13e9f43a677cc931cb8c0c, type: 2}
    EquipmentType: 1
    EquipItemType: 0
    SkillName: 
    Stats:
    - Component: 2
      MathType: 0
      Value: 0
  - NameKey: Armor_Brown_Magician_Lvl_3
    ConfigId: 308
    Icon: {fileID: 21300000, guid: 7a6bbebe01050584f91205333009c067, type: 3}
    Category: 0
    DescriptionKey: 
    IsStackable: 0
    PrefabView: {fileID: 11400000, guid: 49572a1daefd2124c91691217b63db02, type: 2}
    EquipmentType: 1
    EquipItemType: 0
    SkillName: 
    Stats:
    - Component: 2
      MathType: 0
      Value: 0
  - NameKey: Armor_Brown_Magician_Lvl_4
    ConfigId: 309
    Icon: {fileID: 21300000, guid: e09179493f1ebc5488ed081d86abf173, type: 3}
    Category: 0
    DescriptionKey: 
    IsStackable: 0
    PrefabView: {fileID: 11400000, guid: 4aef66aa19a9ac342b1bc1af562dfcc1, type: 2}
    EquipmentType: 1
    EquipItemType: 0
    SkillName: 
    Stats:
    - Component: 2
      MathType: 0
      Value: 0
  - NameKey: Armor_Brown_Magician_Lvl_5
    ConfigId: 310
    Icon: {fileID: 21300000, guid: 99eb5c723fe867e438315ba58949936f, type: 3}
    Category: 0
    DescriptionKey: 
    IsStackable: 0
    PrefabView: {fileID: 11400000, guid: 2bce4918b15db07468bc433af2227a0f, type: 2}
    EquipmentType: 1
    EquipItemType: 0
    SkillName: 
    Stats:
    - Component: 2
      MathType: 0
      Value: 0
  - NameKey: Armor_Green_Magician_Lvl_1
    ConfigId: 311
    Icon: {fileID: 21300000, guid: 6c4179964cb3cd745966f8a4dafb85a4, type: 3}
    Category: 0
    DescriptionKey: 
    IsStackable: 0
    PrefabView: {fileID: 11400000, guid: 1ac388431710f8a409bdddc2e8a0011d, type: 2}
    EquipmentType: 1
    EquipItemType: 0
    SkillName: 
    Stats:
    - Component: 2
      MathType: 0
      Value: 0
  - NameKey: Armor_Green_Magician_Lvl_2
    ConfigId: 312
    Icon: {fileID: 21300000, guid: 092ba3d7c33f6024faf33f0c64c0032d, type: 3}
    Category: 0
    DescriptionKey: 
    IsStackable: 0
    PrefabView: {fileID: 11400000, guid: c02d0c627b8910841ad1290c9839ec38, type: 2}
    EquipmentType: 1
    EquipItemType: 0
    SkillName: 
    Stats:
    - Component: 2
      MathType: 0
      Value: 0
  - NameKey: Armor_Green_Magician_Lvl_3
    ConfigId: 313
    Icon: {fileID: 21300000, guid: 673958fadaad44c408fb3773046906c9, type: 3}
    Category: 0
    DescriptionKey: 
    IsStackable: 0
    PrefabView: {fileID: 11400000, guid: d22d0fb1b18788d469ac96f4261a0a8e, type: 2}
    EquipmentType: 1
    EquipItemType: 0
    SkillName: 
    Stats:
    - Component: 2
      MathType: 0
      Value: 0
  - NameKey: Armor_Green_Magician_Lvl_4
    ConfigId: 314
    Icon: {fileID: 21300000, guid: 7eb888b0674054f488ce10302311049c, type: 3}
    Category: 0
    DescriptionKey: 
    IsStackable: 0
    PrefabView: {fileID: 11400000, guid: 358ae1a3a8aace44c830a670d3536876, type: 2}
    EquipmentType: 1
    EquipItemType: 0
    SkillName: 
    Stats:
    - Component: 2
      MathType: 0
      Value: 0
  - NameKey: Armor_Green_Magician_Lvl_5
    ConfigId: 315
    Icon: {fileID: 21300000, guid: 34a2ba71a6a756d428aed1a3a4f42a1b, type: 3}
    Category: 0
    DescriptionKey: 
    IsStackable: 0
    PrefabView: {fileID: 11400000, guid: 04cc576e7b368a34a88a4b0fa06a185d, type: 2}
    EquipmentType: 1
    EquipItemType: 0
    SkillName: 
    Stats:
    - Component: 2
      MathType: 0
      Value: 0
  - NameKey: Armor_Green_Warrior_Lvl_1
    ConfigId: 316
    Icon: {fileID: 21300000, guid: 396236021ce74b14bb5a315185ae45f7, type: 3}
    Category: 0
    DescriptionKey: 
    IsStackable: 0
    PrefabView: {fileID: 11400000, guid: b1bf3b52770c82e43b643c11bec4af27, type: 2}
    EquipmentType: 1
    EquipItemType: 0
    SkillName: 
    Stats:
    - Component: 2
      MathType: 0
      Value: 0
  - NameKey: Armor_Green_Warrior_Lvl_2
    ConfigId: 317
    Icon: {fileID: 21300000, guid: c0ed13b9f121b9149a5c3452f2ebf8cd, type: 3}
    Category: 0
    DescriptionKey: 
    IsStackable: 0
    PrefabView: {fileID: 11400000, guid: 8ce697c6ea29821409865b3921fb814e, type: 2}
    EquipmentType: 1
    EquipItemType: 0
    SkillName: 
    Stats:
    - Component: 2
      MathType: 0
      Value: 0
  - NameKey: Armor_Green_Warrior_Lvl_3
    ConfigId: 318
    Icon: {fileID: 21300000, guid: 33aa4b398536faa49b7698ac82c8524d, type: 3}
    Category: 0
    DescriptionKey: 
    IsStackable: 0
    PrefabView: {fileID: 11400000, guid: 25833690feb274344be4fe2f03c7cb50, type: 2}
    EquipmentType: 1
    EquipItemType: 0
    SkillName: 
    Stats:
    - Component: 2
      MathType: 0
      Value: 0
  - NameKey: Armor_Green_Warrior_Lvl_4
    ConfigId: 319
    Icon: {fileID: 21300000, guid: 960414460bc1c3f4abd0b80e703b41dc, type: 3}
    Category: 0
    DescriptionKey: 
    IsStackable: 0
    PrefabView: {fileID: 11400000, guid: 0ab04b8b5c43bf440811fa771b1e0cb9, type: 2}
    EquipmentType: 1
    EquipItemType: 0
    SkillName: 
    Stats:
    - Component: 2
      MathType: 0
      Value: 0
  - NameKey: Armor_Green_Warrior_Lvl_5
    ConfigId: 320
    Icon: {fileID: 21300000, guid: 0e29ec4e5e01ff84199bf35d61e0b33d, type: 3}
    Category: 0
    DescriptionKey: 
    IsStackable: 0
    PrefabView: {fileID: 11400000, guid: deca6ea4ac867684fb467f0facea09e0, type: 2}
    EquipmentType: 1
    EquipItemType: 0
    SkillName: 
    Stats:
    - Component: 2
      MathType: 0
      Value: 0
  - NameKey: Hat_Black_Magician_Lvl_1
    ConfigId: 321
    Icon: {fileID: 21300000, guid: 8d9f22115eb5b8448965c7b7af1790a8, type: 3}
    Category: 0
    DescriptionKey: 
    IsStackable: 0
    PrefabView: {fileID: 11400000, guid: b8ffa3dc8033e4541a3cbc38aa62d0de, type: 2}
    EquipmentType: 0
    EquipItemType: 0
    SkillName: 
    Stats:
    - Component: 2
      MathType: 0
      Value: 0
    - Component: 3
      MathType: 0
      Value: 0
  - NameKey: Hat_Black_Magician_Lvl_2
    ConfigId: 322
    Icon: {fileID: 21300000, guid: 0105d84095041ea418da8163e7f9c6b0, type: 3}
    Category: 0
    DescriptionKey: 
    IsStackable: 0
    PrefabView: {fileID: 11400000, guid: 652f54bdc7fa2684ea60dbe2375e8bd6, type: 2}
    EquipmentType: 0
    EquipItemType: 0
    SkillName: 
    Stats:
    - Component: 2
      MathType: 0
      Value: 0
    - Component: 3
      MathType: 0
      Value: 0
  - NameKey: Hat_Black_Magician_Lvl_3
    ConfigId: 323
    Icon: {fileID: 21300000, guid: 494964f5a9a2c434ca17cd4520664a99, type: 3}
    Category: 0
    DescriptionKey: 
    IsStackable: 0
    PrefabView: {fileID: 11400000, guid: 166cc03d0e6e2674781c32a6439fa29f, type: 2}
    EquipmentType: 0
    EquipItemType: 0
    SkillName: 
    Stats:
    - Component: 2
      MathType: 0
      Value: 0
    - Component: 3
      MathType: 0
      Value: 0
  - NameKey: Hat_Black_Magician_Lvl_4
    ConfigId: 324
    Icon: {fileID: 21300000, guid: 296e5e73c60d36c4eaae6eb39a24c828, type: 3}
    Category: 0
    DescriptionKey: 
    IsStackable: 0
    PrefabView: {fileID: 11400000, guid: cfaa7bd9d26cee84ba218201471ed0ad, type: 2}
    EquipmentType: 0
    EquipItemType: 0
    SkillName: 
    Stats:
    - Component: 2
      MathType: 0
      Value: 0
    - Component: 3
      MathType: 0
      Value: 0
  - NameKey: Hat_Black_Magician_Lvl_5
    ConfigId: 325
    Icon: {fileID: 21300000, guid: f2f94cb57150f324d8e15dfe51e80899, type: 3}
    Category: 0
    DescriptionKey: 
    IsStackable: 0
    PrefabView: {fileID: 11400000, guid: b2b50bd9cbe4cd541af08bbcedaadbc8, type: 2}
    EquipmentType: 0
    EquipItemType: 0
    SkillName: 
    Stats:
    - Component: 2
      MathType: 0
      Value: 0
    - Component: 3
      MathType: 0
      Value: 0
  - NameKey: Hat_Black_Warrior_1
    ConfigId: 326
    Icon: {fileID: 21300000, guid: c63eb91a3badb984c82ed67d447ebc3b, type: 3}
    Category: 0
    DescriptionKey: 
    IsStackable: 0
    PrefabView: {fileID: 11400000, guid: 084828993b6e687438560f09ddf363fb, type: 2}
    EquipmentType: 0
    EquipItemType: 0
    SkillName: 
    Stats:
    - Component: 2
      MathType: 0
      Value: 0
  - NameKey: Hat_Black_Warrior_2
    ConfigId: 327
    Icon: {fileID: 21300000, guid: 4aaf063a0937650459b2b359bdc07b47, type: 3}
    Category: 0
    DescriptionKey: 
    IsStackable: 0
    PrefabView: {fileID: 11400000, guid: f45d733b512c5ca42bdc4ab4e75d5054, type: 2}
    EquipmentType: 0
    EquipItemType: 0
    SkillName: 
    Stats:
    - Component: 2
      MathType: 0
      Value: 0
  - NameKey: Hat_Black_Warrior_3
    ConfigId: 328
    Icon: {fileID: 21300000, guid: b9a9f43c3f218484292abacf6cdcd5f5, type: 3}
    Category: 0
    DescriptionKey: 
    IsStackable: 0
    PrefabView: {fileID: 11400000, guid: a4a137aef3507954386240634831edc8, type: 2}
    EquipmentType: 0
    EquipItemType: 0
    SkillName: 
    Stats:
    - Component: 2
      MathType: 0
      Value: 0
  - NameKey: Hat_Black_Warrior_4
    ConfigId: 329
    Icon: {fileID: 21300000, guid: 8432186e05ff08947aeaa964083a4560, type: 3}
    Category: 0
    DescriptionKey: 
    IsStackable: 0
    PrefabView: {fileID: 11400000, guid: 65c965f7787d09c42bdfbfa890411f70, type: 2}
    EquipmentType: 0
    EquipItemType: 0
    SkillName: 
    Stats:
    - Component: 2
      MathType: 0
      Value: 0
  - NameKey: Hat_Black_Warrior_5
    ConfigId: 330
    Icon: {fileID: 21300000, guid: 2e2a06e9d0409da4a94406d1aae29341, type: 3}
    Category: 0
    DescriptionKey: 
    IsStackable: 0
    PrefabView: {fileID: 11400000, guid: b26209bb95c5f394e81dd32ab739a85c, type: 2}
    EquipmentType: 0
    EquipItemType: 0
    SkillName: 
    Stats:
    - Component: 2
      MathType: 0
      Value: 0
  - NameKey: Hat_Brown_Magician_Lvl_1
    ConfigId: 331
    Icon: {fileID: 21300000, guid: 18631759e939f864884678262d7982b7, type: 3}
    Category: 0
    DescriptionKey: 
    IsStackable: 0
    PrefabView: {fileID: 11400000, guid: f7e52fd0778a21647a396a571f5714f9, type: 2}
    EquipmentType: 0
    EquipItemType: 0
    SkillName: 
    Stats:
    - Component: 3
      MathType: 0
      Value: 0
  - NameKey: Hat_Brown_Magician_Lvl_2
    ConfigId: 332
    Icon: {fileID: 21300000, guid: 27af79e201ee0384a934bd8c28563eab, type: 3}
    Category: 0
    DescriptionKey: 
    IsStackable: 0
    PrefabView: {fileID: 11400000, guid: b306074d028a77c44ac403a11a6e157c, type: 2}
    EquipmentType: 0
    EquipItemType: 0
    SkillName: 
    Stats:
    - Component: 3
      MathType: 0
      Value: 0
  - NameKey: Hat_Brown_Magician_Lvl_3
    ConfigId: 333
    Icon: {fileID: 21300000, guid: 458339da97da9ba4daa2d6621da1e4c0, type: 3}
    Category: 0
    DescriptionKey: 
    IsStackable: 0
    PrefabView: {fileID: 11400000, guid: be48c47b20ac5e241b58362dd353dcac, type: 2}
    EquipmentType: 0
    EquipItemType: 0
    SkillName: 
    Stats:
    - Component: 3
      MathType: 0
      Value: 0
  - NameKey: Hat_Brown_Magician_Lvl_4
    ConfigId: 334
    Icon: {fileID: 21300000, guid: aa442cb3cc1fb2d43bfddebf9634da11, type: 3}
    Category: 0
    DescriptionKey: 
    IsStackable: 0
    PrefabView: {fileID: 11400000, guid: 31d1016d2f89b164c9412a427645efcd, type: 2}
    EquipmentType: 0
    EquipItemType: 0
    SkillName: 
    Stats:
    - Component: 3
      MathType: 0
      Value: 0
  - NameKey: Hat_Brown_Magician_Lvl_5
    ConfigId: 335
    Icon: {fileID: 21300000, guid: 8d66af6cdf599014189e5f09436deab7, type: 3}
    Category: 0
    DescriptionKey: 
    IsStackable: 0
    PrefabView: {fileID: 11400000, guid: 2afca10658fe7e841a10ebef69a74eee, type: 2}
    EquipmentType: 0
    EquipItemType: 0
    SkillName: 
    Stats:
    - Component: 3
      MathType: 0
      Value: 0
  - NameKey: Hat_Green_Magician_Lvl_1
    ConfigId: 336
    Icon: {fileID: 21300000, guid: 5e64e4f1f22492a47bd27ba3b4d3b629, type: 3}
    Category: 0
    DescriptionKey: 
    IsStackable: 0
    PrefabView: {fileID: 11400000, guid: 396963d57b2e68a419e2bf4ca568d64d, type: 2}
    EquipmentType: 0
    EquipItemType: 0
    SkillName: 
    Stats:
    - Component: 2
      MathType: 0
      Value: 0
  - NameKey: Hat_Green_Magician_Lvl_2
    ConfigId: 337
    Icon: {fileID: 21300000, guid: 0b8e04f378472dd4d844cf239cf82f75, type: 3}
    Category: 0
    DescriptionKey: 
    IsStackable: 0
    PrefabView: {fileID: 11400000, guid: 025d275dd63c92642bb091d53040904b, type: 2}
    EquipmentType: 0
    EquipItemType: 0
    SkillName: 
    Stats:
    - Component: 2
      MathType: 0
      Value: 0
  - NameKey: Hat_Green_Magician_Lvl_3
    ConfigId: 338
    Icon: {fileID: 21300000, guid: a6f303bca95973e42881baef19de7e42, type: 3}
    Category: 0
    DescriptionKey: 
    IsStackable: 0
    PrefabView: {fileID: 11400000, guid: 4c06d15f7d193d848ab419de6c8d830f, type: 2}
    EquipmentType: 0
    EquipItemType: 0
    SkillName: 
    Stats:
    - Component: 2
      MathType: 0
      Value: 0
  - NameKey: Hat_Green_Magician_Lvl_4
    ConfigId: 339
    Icon: {fileID: 21300000, guid: c1b0cc9c450866d42921362c8d888a1c, type: 3}
    Category: 0
    DescriptionKey: 
    IsStackable: 0
    PrefabView: {fileID: 11400000, guid: d833cdd9a9e1a8f4f9becdabbf9728dd, type: 2}
    EquipmentType: 0
    EquipItemType: 0
    SkillName: 
    Stats:
    - Component: 2
      MathType: 0
      Value: 0
  - NameKey: Hat_Green_Magician_Lvl_5
    ConfigId: 340
    Icon: {fileID: 21300000, guid: 0431cacc6b983a649bf7a7a1c9572e72, type: 3}
    Category: 0
    DescriptionKey: 
    IsStackable: 0
    PrefabView: {fileID: 11400000, guid: 22cac24c08a52e14f8b7f3241a27fa54, type: 2}
    EquipmentType: 0
    EquipItemType: 0
    SkillName: 
    Stats:
    - Component: 2
      MathType: 0
      Value: 0
  - NameKey: Hat_Grey_Warrior_Lvl_1
    ConfigId: 341
    Icon: {fileID: 21300000, guid: 1db5fc9f1501227438207b1d31575bdc, type: 3}
    Category: 0
    DescriptionKey: 
    IsStackable: 0
    PrefabView: {fileID: 11400000, guid: 3d69ad1f7ede00c4d9efbd76d9dd25df, type: 2}
    EquipmentType: 0
    EquipItemType: 0
    SkillName: 
    Stats:
    - Component: 3
      MathType: 0
      Value: 0
  - NameKey: Hat_Grey_Warrior_Lvl_2
    ConfigId: 342
    Icon: {fileID: 21300000, guid: 6f385a48ab0678047b3a9a0a671257be, type: 3}
    Category: 0
    DescriptionKey: 
    IsStackable: 0
    PrefabView: {fileID: 11400000, guid: b34e98cf29966394d8a878f3ddd28224, type: 2}
    EquipmentType: 0
    EquipItemType: 0
    SkillName: 
    Stats:
    - Component: 3
      MathType: 0
      Value: 0
  - NameKey: Hat_Grey_Warrior_Lvl_3
    ConfigId: 343
    Icon: {fileID: 21300000, guid: 4b77051d878a96f47a7dad32d4abfa07, type: 3}
    Category: 0
    DescriptionKey: 
    IsStackable: 0
    PrefabView: {fileID: 11400000, guid: 443ba71b6d0301e4caff51106c39800d, type: 2}
    EquipmentType: 0
    EquipItemType: 0
    SkillName: 
    Stats:
    - Component: 3
      MathType: 0
      Value: 0
  - NameKey: Hat_Grey_Warrior_Lvl_4
    ConfigId: 344
    Icon: {fileID: 21300000, guid: a6511e41bfeacf041b7c54fb4ca45f0c, type: 3}
    Category: 0
    DescriptionKey: 
    IsStackable: 0
    PrefabView: {fileID: 11400000, guid: 1ef81a7639a462a4dafa11fa1c0891fa, type: 2}
    EquipmentType: 0
    EquipItemType: 0
    SkillName: 
    Stats:
    - Component: 3
      MathType: 0
      Value: 0
  - NameKey: Hat_Grey_Warrior_Lvl_5
    ConfigId: 345
    Icon: {fileID: 21300000, guid: 83368a4248a50bd41b5ddb5c8b8a4c90, type: 3}
    Category: 0
    DescriptionKey: 
    IsStackable: 0
    PrefabView: {fileID: 11400000, guid: a5db5895fe95cd048b39f10ab1113b2e, type: 2}
    EquipmentType: 0
    EquipItemType: 0
    SkillName: 
    Stats:
    - Component: 3
      MathType: 0
      Value: 0
  - NameKey: Weapon_Big_Lvl_1
    ConfigId: 346
    Icon: {fileID: 21300000, guid: f89b773ebf24d5f4a80192155fe36288, type: 3}
    Category: 0
    DescriptionKey: 
    IsStackable: 0
    PrefabView: {fileID: 11400000, guid: 840b3cac88a0f784c9df4a5c5197c347, type: 2}
    EquipmentType: 3
    EquipItemType: 0
    SkillName: "\u0423\u0434\u0430\u0440 \u0441 \u0417\u0430\u043C\u0435\u0434\u043B\u0435\u043D\u0438\u0435\u043C"
    Stats:
    - Component: 2
      MathType: 0
      Value: 0
  - NameKey: Weapon_Big_Lvl_2
    ConfigId: 347
    Icon: {fileID: 21300000, guid: 026ef0b4a963104429136a8831efd7f5, type: 3}
    Category: 0
    DescriptionKey: 
    IsStackable: 0
    PrefabView: {fileID: 11400000, guid: 0ca5938ddba72b742b5622b0717a6d5c, type: 2}
    EquipmentType: 3
    EquipItemType: 0
    SkillName: "\u0423\u0434\u0430\u0440 \u0441 \u0417\u0430\u043C\u0435\u0434\u043B\u0435\u043D\u0438\u0435\u043C"
    Stats:
    - Component: 2
      MathType: 0
      Value: 0
  - NameKey: Weapon_Big_Lvl_3
    ConfigId: 348
    Icon: {fileID: 21300000, guid: 7a42a6afd4ac7774c9a01a00636d4cb1, type: 3}
    Category: 0
    DescriptionKey: 
    IsStackable: 0
    PrefabView: {fileID: 11400000, guid: eb2dabbd3b0c67c4d9a9ee27b9570f86, type: 2}
    EquipmentType: 3
    EquipItemType: 0
    SkillName: "\u0423\u0434\u0430\u0440 \u0441 \u0417\u0430\u043C\u0435\u0434\u043B\u0435\u043D\u0438\u0435\u043C"
    Stats:
    - Component: 2
      MathType: 0
      Value: 0
  - NameKey: Weapon_Big_Lvl_4
    ConfigId: 349
    Icon: {fileID: 21300000, guid: 14c8a7c36d3154042a011a6f4f99b47d, type: 3}
    Category: 0
    DescriptionKey: 
    IsStackable: 0
    PrefabView: {fileID: 11400000, guid: c3f36d3e1a2b8c342b6d5a29f394dd26, type: 2}
    EquipmentType: 3
    EquipItemType: 0
    SkillName: "\u0423\u0434\u0430\u0440 \u0441 \u0417\u0430\u043C\u0435\u0434\u043B\u0435\u043D\u0438\u0435\u043C"
    Stats:
    - Component: 2
      MathType: 0
      Value: 0
  - NameKey: Weapon_Big_Lvl_5
    ConfigId: 350
    Icon: {fileID: 21300000, guid: db92c0c87c617dd43963d6156c2eb1a4, type: 3}
    Category: 0
    DescriptionKey: 
    IsStackable: 0
    PrefabView: {fileID: 11400000, guid: 634f8bc7eafef65448a49ca5953d63f8, type: 2}
    EquipmentType: 3
    EquipItemType: 0
    SkillName: "\u0423\u0434\u0430\u0440 \u0441 \u0417\u0430\u043C\u0435\u0434\u043B\u0435\u043D\u0438\u0435\u043C"
    Stats:
    - Component: 2
      MathType: 0
      Value: 0
  - NameKey: Weapon_Long_Lvl_1
    ConfigId: 351
    Icon: {fileID: 21300000, guid: b32f0fc27ae056342ba31d13f5bf4a39, type: 3}
    Category: 0
    DescriptionKey: 
    IsStackable: 0
    PrefabView: {fileID: 11400000, guid: e36f14aa3c4d2aa4c8b31899ac7ad05d, type: 2}
    EquipmentType: 3
    EquipItemType: 0
    SkillName: "\u0423\u0434\u0430\u0440 \u0441 \u0422\u043E\u043A\u0440\u043E\u043C"
    Stats:
    - Component: 3
      MathType: 0
      Value: 0
  - NameKey: Weapon_Long_Lvl_2
    ConfigId: 352
    Icon: {fileID: 21300000, guid: 51f125706075f76498b566930c416788, type: 3}
    Category: 0
    DescriptionKey: 
    IsStackable: 0
    PrefabView: {fileID: 11400000, guid: f87375d5c70a107458681cdacca843df, type: 2}
    EquipmentType: 3
    EquipItemType: 0
    SkillName: "\u0423\u0434\u0430\u0440 \u0441 \u0422\u043E\u043A\u0440\u043E\u043C"
    Stats:
    - Component: 3
      MathType: 0
      Value: 0
  - NameKey: Weapon_Long_Lvl_3
    ConfigId: 353
    Icon: {fileID: 21300000, guid: e2bd6f91076471f46affe2f0fea5865d, type: 3}
    Category: 0
    DescriptionKey: 
    IsStackable: 0
    PrefabView: {fileID: 11400000, guid: 76a00f385d518194091973fa86d929ff, type: 2}
    EquipmentType: 3
    EquipItemType: 0
    SkillName: "\u0423\u0434\u0430\u0440 \u0441 \u0422\u043E\u043A\u0440\u043E\u043C"
    Stats:
    - Component: 3
      MathType: 0
      Value: 0
  - NameKey: Weapon_Long_Lvl_4
    ConfigId: 354
    Icon: {fileID: 21300000, guid: e6edc5e85f2738042b0781cc75c77a7c, type: 3}
    Category: 0
    DescriptionKey: 
    IsStackable: 0
    PrefabView: {fileID: 11400000, guid: b09b310cbe3c4b94c873b4de855eb22e, type: 2}
    EquipmentType: 3
    EquipItemType: 0
    SkillName: "\u0423\u0434\u0430\u0440 \u0441 \u0422\u043E\u043A\u0440\u043E\u043C"
    Stats:
    - Component: 3
      MathType: 0
      Value: 0
  - NameKey: Weapon_Long_Lvl_5
    ConfigId: 355
    Icon: {fileID: 21300000, guid: 7819959ebaa44a24180d315bc2f3b50b, type: 3}
    Category: 0
    DescriptionKey: 
    IsStackable: 0
    PrefabView: {fileID: 11400000, guid: 3f2ba477e8f113a47a1994867ad8330e, type: 2}
    EquipmentType: 3
    EquipItemType: 0
    SkillName: "\u0423\u0434\u0430\u0440 \u0441 \u0422\u043E\u043A\u0440\u043E\u043C"
    Stats:
    - Component: 3
      MathType: 0
      Value: 0
  - NameKey: Weapon_Smile_Lvl_1
    ConfigId: 356
    Icon: {fileID: 21300000, guid: 887acc1ffe5363a4eb172b3187200d81, type: 3}
    Category: 0
    DescriptionKey: "\u0423\u0434\u0430\u0440 \u0441 \u042F\u0434\u043E\u043C"
    IsStackable: 0
    PrefabView: {fileID: 11400000, guid: bcf688cd02fd13d43afcd697477afa5c, type: 2}
    EquipmentType: 3
    EquipItemType: 0
    SkillName: 
    Stats:
    - Component: 3
      MathType: 0
      Value: 0
  - NameKey: Weapon_Smile_Lvl_2
    ConfigId: 357
    Icon: {fileID: 21300000, guid: 69f8fa25e4c0ffb4eb497b03da47f30e, type: 3}
    Category: 0
    DescriptionKey: 
    IsStackable: 0
    PrefabView: {fileID: 11400000, guid: 8882f47e08295dc479ace28c957b6771, type: 2}
    EquipmentType: 3
    EquipItemType: 0
    SkillName: "\u0423\u0434\u0430\u0440 \u0441 \u042F\u0434\u043E\u043C"
    Stats:
    - Component: 3
      MathType: 0
      Value: 0
  - NameKey: Weapon_Smile_Lvl_3
    ConfigId: 358
    Icon: {fileID: 21300000, guid: 65b3d65fdda1a4948a47d40e827748aa, type: 3}
    Category: 0
    DescriptionKey: 
    IsStackable: 0
    PrefabView: {fileID: 11400000, guid: e3dfa050694887344bb3da7a5de1c107, type: 2}
    EquipmentType: 3
    EquipItemType: 0
    SkillName: "\u0423\u0434\u0430\u0440 \u0441 \u042F\u0434\u043E\u043C"
    Stats:
    - Component: 3
      MathType: 0
      Value: 0
  - NameKey: Weapon_Smile_Lvl_4
    ConfigId: 359
    Icon: {fileID: 21300000, guid: c4058807eb9e59f4ca4d31eb41a33417, type: 3}
    Category: 0
    DescriptionKey: 
    IsStackable: 0
    PrefabView: {fileID: 11400000, guid: f1d15d89c2fe2554a9a277db9c2bb9e8, type: 2}
    EquipmentType: 3
    EquipItemType: 0
    SkillName: "\u0423\u0434\u0430\u0440 \u0441 \u042F\u0434\u043E\u043C"
    Stats:
    - Component: 3
      MathType: 0
      Value: 0
  - NameKey: Weapon_Smile_Lvl_5
    ConfigId: 360
    Icon: {fileID: 21300000, guid: 212eae5a73e130c459be00f287f750dd, type: 3}
    Category: 0
    DescriptionKey: 
    IsStackable: 0
    PrefabView: {fileID: 11400000, guid: d41f4020b41849c4c9fa0e4e9f5e9d5a, type: 2}
    EquipmentType: 3
    EquipItemType: 0
    SkillName: "\u0423\u0434\u0430\u0440 \u0441 \u042F\u0434\u043E\u043C"
    Stats:
    - Component: 3
      MathType: 0
      Value: 0
