%YAML 1.1
%TAG !u! tag:unity3d.com,2011:
--- !u!114 &11400000
MonoBehaviour:
  m_ObjectHideFlags: 0
  m_CorrespondingSourceObject: {fileID: 0}
  m_PrefabInstance: {fileID: 0}
  m_PrefabAsset: {fileID: 0}
  m_GameObject: {fileID: 0}
  m_Enabled: 1
  m_EditorHideFlags: 0
  m_Script: {fileID: 11500000, guid: bcc9e6e460774442a44980573d71b6fd, type: 3}
  m_Name: ComponentAssets
  m_EditorClassIdentifier: 
  DefaultComponents:
  - Component: 0
    DefaultValue: 0
    StartValue: 0
    KeyName: 
  - Component: 1
    DefaultValue: 50
    StartValue: 1
    KeyName: "\u0421\u043A\u043E\u0440\u043E\u0441\u0442\u044C"
  - Component: 3
    DefaultValue: 5
    StartValue: 1
    KeyName: "\u0423\u0440\u043E\u043D"
  - Component: 2
    DefaultValue: 100
    StartValue: 1
    KeyName: "\u0417\u0434\u043E\u0440\u043E\u0432\u044C\u0435"
