%YAML 1.1
%TAG !u! tag:unity3d.com,2011:
--- !u!114 &11400000
MonoBehaviour:
  m_ObjectHideFlags: 0
  m_CorrespondingSourceObject: {fileID: 0}
  m_PrefabInstance: {fileID: 0}
  m_PrefabAsset: {fileID: 0}
  m_GameObject: {fileID: 0}
  m_Enabled: 1
  m_EditorHideFlags: 0
  m_Script: {fileID: 11500000, guid: 1d4d3a6b8083425cabeb0ddbb8f4a6cc, type: 3}
  m_Name: 1
  m_EditorClassIdentifier: 
  namePart: 1
  Head: {fileID: 2156110474238115291, guid: 3b66858ad57091849a09aa739120a0ca, type: 3}
  Body: {fileID: 6156118496648662105, guid: 2c4e98b30f4f04c47b1d30ca6dd45607, type: 3}
  HandL: {fileID: 3257862080525206091, guid: c4864638920f6ac4da0064822cfd40d2, type: 3}
  HandR: {fileID: 4253766376111147759, guid: f059ff764d7a1224d83359e32a8d626c, type: 3}
  Foot: {fileID: 3182142309667975690, guid: 8234d54044147ed4ea6bab2c5bddfe45, type: 3}
