%YAML 1.1
%TAG !u! tag:unity3d.com,2011:
--- !u!114 &11400000
MonoBehaviour:
  m_ObjectHideFlags: 0
  m_CorrespondingSourceObject: {fileID: 0}
  m_PrefabInstance: {fileID: 0}
  m_PrefabAsset: {fileID: 0}
  m_GameObject: {fileID: 0}
  m_Enabled: 1
  m_EditorHideFlags: 0
  m_Script: {fileID: 11500000, guid: c1d8a47594ec41daa6d4c243c4152343, type: 3}
  m_Name: SceneAssets
  m_EditorClassIdentifier: 
  StartSceneName: StartScene
  MenuSceneName: HomeScene
  FightSceneName: FightScene
