%YAML 1.1
%TAG !u! tag:unity3d.com,2011:
--- !u!114 &11400000
MonoBehaviour:
  m_ObjectHideFlags: 0
  m_CorrespondingSourceObject: {fileID: 0}
  m_PrefabInstance: {fileID: 0}
  m_PrefabAsset: {fileID: 0}
  m_GameObject: {fileID: 0}
  m_Enabled: 1
  m_EditorHideFlags: 0
  m_Script: {fileID: 11500000, guid: a17001f3386344dda8d30526cb079509, type: 3}
  m_Name: Beard3
  m_EditorClassIdentifier: 
  namePart: Bread 3
  beard: {fileID: 9172801181769018579, guid: 11c52d6c36809e64899e33286c7958d0, type: 3}
