%YAML 1.1
%TAG !u! tag:unity3d.com,2011:
--- !u!114 &11400000
MonoBehaviour:
  m_ObjectHideFlags: 0
  m_CorrespondingSourceObject: {fileID: 0}
  m_PrefabInstance: {fileID: 0}
  m_PrefabAsset: {fileID: 0}
  m_GameObject: {fileID: 0}
  m_Enabled: 1
  m_EditorHideFlags: 0
  m_Script: {fileID: 11500000, guid: a17001f3386344dda8d30526cb079509, type: 3}
  m_Name: Beard10
  m_EditorClassIdentifier: 
  namePart: Bread 10
  beard: {fileID: 7691019101108765685, guid: bb7ae9f5876f4e840a07de5255ae62db, type: 3}
