%YAML 1.1
%TAG !u! tag:unity3d.com,2011:
--- !u!114 &11400000
MonoBehaviour:
  m_ObjectHideFlags: 0
  m_CorrespondingSourceObject: {fileID: 0}
  m_PrefabInstance: {fileID: 0}
  m_PrefabAsset: {fileID: 0}
  m_GameObject: {fileID: 0}
  m_Enabled: 1
  m_EditorHideFlags: 0
  m_Script: {fileID: 11500000, guid: 9093ed2460854c8c88986b4b41c15084, type: 3}
  m_Name: AllPartAssets
  m_EditorClassIdentifier: 
  skinAsset: {fileID: 11400000, guid: fe93fec9ba03a3243b29fd2c14a86491, type: 2}
  eyeAsset: {fileID: 11400000, guid: d62a528b257dafd4daad35ddac5e29cb, type: 2}
  beardsAsset: {fileID: 11400000, guid: 1fbca974b3c58484199a92f06711cc44, type: 2}
